<svg width="1000" height="1000" viewBox="0 0 1000 1000" xmlns="http://www.w3.org/2000/svg">
    <path d="M344 838C344 844.627 338.627 850 332 850H294.25C287.623 850 282.25 844.627 282.25 838V552.833C282.25 546.206 276.877 540.833 270.25 540.833H170.75C164.123 540.833 158.75 546.206 158.75 552.833V838C158.75 844.627 153.377 850 146.75 850H109C102.373 850 97 844.627 97 838V491C97 484.373 102.373 479 109 479H332C338.627 479 344 484.373 344 491V838Z"/>
    <path d="M624 838C624 844.627 618.627 850 612 850H574C567.373 850 562 844.627 562 838V367.778C562 361.15 556.627 355.778 550 355.778H450C443.373 355.778 438 361.15 438 367.778V838C438 844.627 432.627 850 426 850H388C381.373 850 376 844.627 376 838V306C376 299.373 381.373 294 388 294H612C618.627 294 624 299.373 624 306V838Z"/>
    <path d="M903 838C903 844.627 897.627 850 891 850H853.25C846.623 850 841.25 844.627 841.25 838V181.833C841.25 175.206 835.877 169.833 829.25 169.833H729.75C723.123 169.833 717.75 175.206 717.75 181.833V838C717.75 844.627 712.377 850 705.75 850H668C661.373 850 656 844.627 656 838V120C656 113.373 661.373 108 668 108H891C897.627 108 903 113.373 903 120V838Z"/>
    <path d="M5 840H995V902H5V840Z"/>
</svg>
