<svg width="1000" height="1000" viewBox="0 0 1000 1000" xmlns="http://www.w3.org/2000/svg">
    <path d="M388.333 110H165.667C134.924 110 110 134.924 110 165.667V388.333C110 419.076 134.924 444 165.667 444H388.333C419.076 444 444 419.076 444 388.333V165.667C444 134.924 419.076 110 388.333 110Z" />
    <path d="M388.333 556H165.667C134.924 556 110 580.924 110 611.667V834.333C110 865.076 134.924 890 165.667 890H388.333C419.076 890 444 865.076 444 834.333V611.667C444 580.924 419.076 556 388.333 556Z" />
    <path d="M834.333 110H611.667C580.924 110 556 134.924 556 165.667V388.333C556 419.076 580.924 444 611.667 444H834.333C865.076 444 890 419.076 890 388.333V165.667C890 134.924 865.076 110 834.333 110Z" />
    <path d="M834.333 556H611.667C580.924 556 556 580.924 556 611.667V834.333C556 865.076 580.924 890 611.667 890H834.333C865.076 890 890 865.076 890 834.333V611.667C890 580.924 865.076 556 834.333 556Z" />
</svg>
